digraph G {
"base_footprint" -> "base_link"[label="Broadcaster: /robot_state_publisher\nAverage rate: 10000.000 Hz\nMost recent transform: 0.000 ( 289.496 sec old)\nBuffer length: 0.000 sec\n"];
"odom" -> "base_footprint"[label="Broadcaster: /odom\nAverage rate: 867.170 Hz\nMost recent transform: 289.495 ( 0.001 sec old)\nBuffer length: 4.103 sec\n"];
"f_beam" -> "camera_link"[label="Broadcaster: /robot_state_publisher\nAverage rate: 10000.000 Hz\nMost recent transform: 0.000 ( 289.496 sec old)\nBuffer length: 0.000 sec\n"];
"base_link" -> "f_beam"[label="Broadcaster: /robot_state_publisher\nAverage rate: 10000.000 Hz\nMost recent transform: 0.000 ( 289.496 sec old)\nBuffer length: 0.000 sec\n"];
"base_link" -> "r_beam"[label="Broadcaster: /robot_state_publisher\nAverage rate: 10000.000 Hz\nMost recent transform: 0.000 ( 289.496 sec old)\nBuffer length: 0.000 sec\n"];
"base_link" -> "rslidar_base_link"[label="Broadcaster: /robot_state_publisher\nAverage rate: 10000.000 Hz\nMost recent transform: 0.000 ( 289.496 sec old)\nBuffer length: 0.000 sec\n"];
"rslidar_base_link" -> "rslidar"[label="Broadcaster: /robot_state_publisher\nAverage rate: 10000.000 Hz\nMost recent transform: 0.000 ( 289.496 sec old)\nBuffer length: 0.000 sec\n"];
"f_beam" -> "fl_leg"[label="Broadcaster: /robot_state_publisher\nAverage rate: 25.245 Hz\nMost recent transform: 289.483 ( 0.013 sec old)\nBuffer length: 4.080 sec\n"];
"fl_leg" -> "fl_wheel"[label="Broadcaster: /robot_state_publisher\nAverage rate: 25.245 Hz\nMost recent transform: 289.483 ( 0.013 sec old)\nBuffer length: 4.080 sec\n"];
"f_beam" -> "fr_leg"[label="Broadcaster: /robot_state_publisher\nAverage rate: 25.245 Hz\nMost recent transform: 289.483 ( 0.013 sec old)\nBuffer length: 4.080 sec\n"];
"fr_leg" -> "fr_wheel"[label="Broadcaster: /robot_state_publisher\nAverage rate: 25.245 Hz\nMost recent transform: 289.483 ( 0.013 sec old)\nBuffer length: 4.080 sec\n"];
"r_beam" -> "rl_leg"[label="Broadcaster: /robot_state_publisher\nAverage rate: 25.245 Hz\nMost recent transform: 289.483 ( 0.013 sec old)\nBuffer length: 4.080 sec\n"];
"rl_leg" -> "rl_wheel"[label="Broadcaster: /robot_state_publisher\nAverage rate: 25.245 Hz\nMost recent transform: 289.483 ( 0.013 sec old)\nBuffer length: 4.080 sec\n"];
"r_beam" -> "rr_leg"[label="Broadcaster: /robot_state_publisher\nAverage rate: 25.245 Hz\nMost recent transform: 289.483 ( 0.013 sec old)\nBuffer length: 4.080 sec\n"];
"rr_leg" -> "rr_wheel"[label="Broadcaster: /robot_state_publisher\nAverage rate: 25.245 Hz\nMost recent transform: 289.483 ( 0.013 sec old)\nBuffer length: 4.080 sec\n"];
edge [style=invis];
 subgraph cluster_legend { style=bold; color=black; label ="view_frames Result";
"Recorded at time: 289.496"[ shape=plaintext ] ;
 }->"odom";
}