<?xml version="1.0"?>
<robot  xmlns:xacro="http://www.ros.org/wiki/xacro" name="R2-O2">

    <xacro:macro name="beam_macro" params="pos">
        <link name="${pos}_beam">
            <visual>
                <geometry>
                    <box size="${beam_length} ${beam_width} ${beam_height}" />
                </geometry>
            </visual>
        <xacro:box_inertial mass="${beam_mass}"  l="${beam_length}" w="${beam_width}" h="${beam_height}"/>
        </link>

        <joint name="${pos}_beam_joint" type="fixed">
			<xacro:if value="${pos == 'f'}">
				<origin xyz="${body_length/2} 0.0 0.0" />
			</xacro:if>
			<xacro:if value="${pos == 'r'}">
				<origin xyz="${-body_length/2} 0.0 0.0" />
			</xacro:if>
            <parent link="base_link"/>
            <child link="${pos}_beam"/>
            <axis xyz="0 1 0" />
        </joint>
    </xacro:macro>

    <xacro:macro name="leg_macro" params="pos side">
        <link name="${pos}${side}_leg">
            <visual>
				<origin xyz="0.0 0.0 ${-leg_length/2}" />
                <geometry>
                    <box size="${leg_height} ${leg_width} ${leg_length}" />
                </geometry>
                <material name="gray"/>
            </visual>
            <xacro:box_inertial mass="${leg_mass}" l="${leg_height}" w="${leg_width}" h="${leg_length}" />
        </link>

        <joint name="${pos}${side}_leg_joint" type="revolute">
			<xacro:if value="${side == 'l'}">
				<origin xyz="0.0 ${-beam_width/2} 0.0" />
			</xacro:if>
			<xacro:if value="${side == 'r'}">
				<origin xyz="0.0 ${beam_width/2} 0.0" />
			</xacro:if>
            <parent link="${pos}_beam"/>
            <child link="${pos}${side}_leg"/>
            <axis xyz="0 0 1" />
            <limit effort="100.0" velocity="5.0" lower="${-0.9999*pi}" upper="${pi}"/>
        </joint>
    </xacro:macro>
	
    <xacro:macro name="wheel_macro" params="pos side *shape">
        <link name="${pos}${side}_wheel">
            <visual>
                <origin rpy="${pi/2} 0.0 0.0"/>
                <geometry>
                    <xacro:insert_block name="shape" />
                </geometry>
                <material name="blue"/>
            </visual>
            <collision>
                <origin rpy="${pi/2} 0.0 0.0"/>
                <geometry>
					<xacro:insert_block name="shape" />
                </geometry>
            </collision>
            <xacro:default_inertial mass="${wheel_mass}" I="0.1"/>
        </link>

        <joint name="${pos}${side}_wheel_joint" type="continuous">
            <origin xyz="0.0 0.0 ${-leg_length}" />
            <parent link="${pos}${side}_leg"/>
            <child link="${pos}${side}_wheel"/>
            <axis xyz="0 1 0" />
            <limit effort="100.0" velocity="500.0"/>
        </joint>
    </xacro:macro>


    
</robot>
